…
proj_data_final_imputed <- rbind(proj_data_factors_notNA,proj_data_factors_NA_wday,
                                 proj_data_factors_NA_wend)
```

5. I perform checks on the data to make sure the imputation makes sense. 


```r
proj_data_factors_NA_wday
```

```
## # A tibble: 1,440 x 6
##    steps date       interval date_time           Day.of.Week Day.Type
##    <dbl> <date>        <dbl> <dttm>              <chr>       <chr>   
##  1 2.08  2012-11-01        0 2012-11-01 00:00:00 Wednesday   Weekday 
##  2 0.462 2012-11-01        5 2012-11-01 00:05:00 Wednesday   Weekday 
##  3 0.179 2012-11-01       10 2012-11-01 00:10:00 Wednesday   Weekday 
##  4 0.205 2012-11-01       15 2012-11-01 00:15:00 Wednesday   Weekday 
##  5 0.103 2012-11-01       20 2012-11-01 00:20:00 Wednesday   Weekday 
##  6 0.615 2012-11-01       25 2012-11-01 00:25:00 Wednesday   Weekday 
##  7 0.718 2012-11-01       30 2012-11-01 00:30:00 Wednesday   Weekday 
##  8 1.18  2012-11-01       35 2012-11-01 00:35:00 Wednesday   Weekday 
##  9 0     2012-11-01       40 2012-11-01 00:40:00 Wednesday   Weekday 
## 10 2     2012-11-01       45 2012-11-01 00:45:00 Wednesday   Weekday 
## # ... with 1,430 more rows
```

```r
proj_data_factors_NA_wend
```

```
## # A tibble: 864 x 6
##    steps date       interval date_time           Day.of.Week Day.Type
##    <dbl> <date>        <dbl> <dttm>              <chr>       <chr>   
##  1 0.714 2012-10-01        0 2012-10-01 00:00:00 Sunday      Weekend 
##  2 0     2012-10-01        5 2012-10-01 00:05:00 Sunday      Weekend 
##  3 0     2012-10-01       10 2012-10-01 00:10:00 Sunday      Weekend 
##  4 0     2012-10-01       15 2012-10-01 00:15:00 Sunday      Weekend 
##  5 0     2012-10-01       20 2012-10-01 00:20:00 Sunday      Weekend 
##  6 6.21  2012-10-01       25 2012-10-01 00:25:00 Sunday      Weekend 
##  7 0     2012-10-01       30 2012-10-01 00:30:00 Sunday      Weekend 
##  8 0     2012-10-01       35 2012-10-01 00:35:00 Sunday      Weekend 
##  9 0     2012-10-01       40 2012-10-01 00:40:00 Sunday      Weekend 
## 10 0     2012-10-01       45 2012-10-01 00:45:00 Sunday      Weekend 
## # ... with 854 more rows
```
…
